…
The **three-way ANOVA** is an extension of the two-way ANOVA for assessing whether there is an interaction effect between three independent categorical variables on a continuous outcome variable.

### Data preparation

We’ll use the `headache` dataset [datarium package], which contains the measures of migraine headache episode pain score in 72 participants treated with three different treatments. The participants include 36 males and 36 females. Males and females were further subdivided into whether they were at low or high risk of migraine.

We want to understand how each independent variable (type of treatments, risk of migraine and gender) interact to predict the pain score.

Load the data and inspect one random row by group combinations:

```
set.seed(123)
data("headache", package = "datarium")
headache %>% sample_n_by(gender, risk, treatment, size = 1)
## # A tibble: 12 x 5
##      id gender risk  treatment pain_score
##   <int> <fct>  <fct> <fct>          <dbl>
## 1    20 male   high  X              100  
## 2    29 male   high  Y               91.2
## 3    33 male   high  Z               81.3
## 4     6 male   low   X               73.1
## 5    12 male   low   Y               67.9
## 6    13 male   low   Z               75.0
## # … with 6 more rows
```

In this example, the effect of the treatment types is our **focal variable**, that is our primary concern. It is thought that the effect of treatments will depend on two other factors, “gender” and “risk” level of migraine, which are called **moderator variables**.

### Summary statistics

Compute the mean and the standard deviation (SD) of `pain_score` by groups:

```
headache %>%
  group_by(gender, risk, treatment) %>%
  get_summary_stats(pain_score, type = "mean_sd")
## # A tibble: 12 x 7
##   gender risk  treatment variable       n  mean    sd
##   <fct>  <fct> <fct>     <chr>      <dbl> <dbl> <dbl>
## 1 male   high  X         pain_score     6  92.7  5.12
## 2 male   high  Y         pain_score     6  82.3  5.00
## 3 male   high  Z         pain_score     6  79.7  4.05
## 4 male   low   X         pain_score     6  76.1  3.86
## 5 male   low   Y         pain_score     6  73.1  4.76
## 6 male   low   Z         pain_score     6  74.5  4.89
## # … with 6 more rows
```
…
In the QQ plot, as all the points fall approximately along the reference line, we can assume normality. This conclusion is supported by the Shapiro-Wilk test. The p-value is not significant (p = 0.4), so we can assume normality.

**Check normality assumption by groups**. Computing Shapiro-Wilk test for each combinations of factor levels.

```
headache %>%
  group_by(gender, risk, treatment) %>%
  shapiro_test(pain_score)
## # A tibble: 12 x 6
##   gender risk  treatment variable   statistic     p
##   <fct>  <fct> <fct>     <chr>          <dbl> <dbl>
## 1 male   high  X         pain_score     0.958 0.808
## 2 male   high  Y         pain_score     0.902 0.384
## 3 male   high  Z         pain_score     0.955 0.784
## 4 male   low   X         pain_score     0.982 0.962
## 5 male   low   Y         pain_score     0.920 0.507
## 6 male   low   Z         pain_score     0.924 0.535
## # … with 6 more rows
```
…
