…
##   id    diet  exercises    t1    t2    t3
##   <fct> <fct> <fct>     <dbl> <dbl> <dbl>
## 1 4     no    no         11.1   9.5  11.1
## 2 10    no    yes        10.2  11.8  17.4
## 3 5     yes   no         11.6  13.4  13.9
## 4 11    yes   yes        12.7  12.7  15.1
# Gather the columns t1, t2 and t3 into long format.
# Convert id and time into factor variables
weightloss <- weightloss %>%
  gather(key = "time", value = "score", t1, t2, t3) %>%
  convert_as_factor(id, time)
# Inspect some random rows of the data by groups
set.seed(123)
weightloss %>% sample_n_by(diet, exercises, time, size = 1)
## # A tibble: 12 x 5
##   id    diet  exercises time  score
##   <fct> <fct> <fct>     <fct> <dbl>
## 1 4     no    no        t1     11.1
## 2 10    no    no        t2     10.7
## 3 5     no    no        t3     12.3
## 4 11    no    yes       t1     10.2
## 5 12    no    yes       t2     13.2
## 6 1     no    yes       t3     15.8
## # … with 6 more rows
```

In this example, the effect of the “time” is our **focal variable**, that is our primary concern.

It is thought that the effect of “time” on the weight loss score will depend on two other factors, “diet” and “exercises”, which are called **moderator variables**.

### Summary statistics

Group the data by `diet`, `exercises` and `time`, and then compute some summary statistics of the `score` variable: mean and sd (standard deviation)

```
weightloss %>%
  group_by(diet, exercises, time) %>%
  get_summary_stats(score, type = "mean_sd")
## # A tibble: 12 x 7
##   diet  exercises time  variable     n  mean    sd
##   <fct> <fct>     <fct> <chr>    <dbl> <dbl> <dbl>
## 1 no    no        t1    score       12  10.9 0.868
## 2 no    no        t2    score       12  11.6 1.30 
## 3 no    no        t3    score       12  11.4 0.935
## 4 no    yes       t1    score       12  10.8 1.27 
## 5 no    yes       t2    score       12  13.4 1.01 
## 6 no    yes       t3    score       12  16.8 1.53 
## # … with 6 more rows
```
…
There were no extreme outliers.

#### Normality assumption

Compute Shapiro-Wilk test for each combinations of factor levels:

```
weightloss %>%
  group_by(diet, exercises, time) %>%
  shapiro_test(score)
## # A tibble: 12 x 6
##   diet  exercises time  variable statistic     p
##   <fct> <fct>     <fct> <chr>        <dbl> <dbl>
## 1 no    no        t1    score        0.917 0.264
## 2 no    no        t2    score        0.957 0.743
## 3 no    no        t3    score        0.965 0.851
## 4 no    yes       t1    score        0.922 0.306
## 5 no    yes       t2    score        0.912 0.229
## 6 no    yes       t3    score        0.953 0.674
## # … with 6 more rows
```
…
