…
## # A tibble: 3 x 5
##   id    group    t1    t2    t3
##   <fct> <fct> <dbl> <dbl> <dbl>
## 1 5     grp1   16.5  15.8  15.7
## 2 27    grp2   17.8  17.7  16.9
## 3 37    grp3   17.1  15.6  14.3
# Gather the columns t1, t2 and t3 into long format.
# Convert id and time into factor variables
anxiety <- anxiety %>%
  gather(key = "time", value = "score", t1, t2, t3) %>%
  convert_as_factor(id, time)
# Inspect some random rows of the data by groups
set.seed(123)
anxiety %>% sample_n_by(group, time, size = 1)
## # A tibble: 9 x 4
##   id    group time  score
##   <fct> <fct> <fct> <dbl>
## 1 5     grp1  t1     16.5
## 2 12    grp1  t2     17.7
## 3 7     grp1  t3     16.5
## 4 29    grp2  t1     18.4
## 5 30    grp2  t2     18.9
## 6 16    grp2  t3     12.7
## # … with 3 more rows
```

### Summary statistics

Group the data by `time` and `group`, and then compute some summary statistics of the `score` variable: mean and sd (standard deviation)

```
anxiety %>%
  group_by(time, group) %>%
  get_summary_stats(score, type = "mean_sd")
## # A tibble: 9 x 6
##   group time  variable     n  mean    sd
##   <fct> <fct> <chr>    <dbl> <dbl> <dbl>
## 1 grp1  t1    score       15  17.1  1.63
## 2 grp2  t1    score       15  16.6  1.57
## 3 grp3  t1    score       15  17.0  1.32
## 4 grp1  t2    score       15  16.9  1.70
## 5 grp2  t2    score       15  16.5  1.70
## 6 grp3  t2    score       15  15.0  1.39
## # … with 3 more rows
```
…
Note that, in the situation where you have extreme outliers, this can be due to: 1) data entry errors, measurement errors or unusual values.

Yo can include the outlier in the analysis anyway if you do not believe the result will be substantially affected. This can be evaluated by comparing the result of the ANOVA with and without the outlier.

It’s also possible to keep the outliers in the data and perform robust ANOVA test using the WRS2 package.

#### Normality assumption

The normality assumption can be checked by computing Shapiro-Wilk test for each combinations of factor levels. If the data is normally distributed, the p-value should be greater than 0.05.

```
anxiety %>%
  group_by(time, group) %>%
  shapiro_test(score)
## # A tibble: 9 x 5
##   group time  variable statistic     p
##   <fct> <fct> <chr>        <dbl> <dbl>
## 1 grp1  t1    score        0.964 0.769
## 2 grp2  t1    score        0.977 0.949
## 3 grp3  t1    score        0.954 0.588
## 4 grp1  t2    score        0.956 0.624
## 5 grp2  t2    score        0.935 0.328
## 6 grp3  t2    score        0.952 0.558
## # … with 3 more rows
```
…
  get_anova_table() %>%
  adjust_pvalue(method = "bonferroni")
one.way
## # A tibble: 3 x 9
##   time  Effect   DFn   DFd      F         p `p<.05`   ges     p.adj
##   <fct> <chr>  <dbl> <dbl>  <dbl>     <dbl> <chr>   <dbl>     <dbl>
## 1 t1    group      2    42  0.365 0.696     ""      0.017 1        
## 2 t2    group      2    42  5.84  0.006     *       0.218 0.018    
## 3 t3    group      2    42 13.8   0.0000248 *       0.396 0.0000744
# Pairwise comparisons between group levels
pwc <- anxiety %>%
  group_by(time) %>%
  pairwise_t_test(score ~ group, p.adjust.method = "bonferroni")
pwc
## # A tibble: 9 x 10
##   time  .y.   group1 group2    n1    n2       p p.signif   p.adj p.adj.signif
## * <fct> <chr> <chr>  <chr>  <int> <int>   <dbl> <chr>      <dbl> <chr>       
## 1 t1    score grp1   grp2      15    15 0.43    ns       1       ns          
## 2 t1    score grp1   grp3      15    15 0.895   ns       1       ns          
## 3 t1    score grp2   grp3      15    15 0.51    ns       1       ns          
## 4 t2    score grp1   grp2      15    15 0.435   ns       1       ns          
## 5 t2    score grp1   grp3      15    15 0.00212 **       0.00636 **          
## 6 t2    score grp2   grp3      15    15 0.0169  *        0.0507  ns          
## # … with 3 more rows
```
…
##   <fct> <chr>  <dbl> <dbl> <dbl>    <dbl> <chr>   <dbl>    <dbl>
## 1 grp1  time       2    28  14.8 4.05e- 5 *       0.024 1.21e- 4
## 2 grp2  time       2    28  77.5 3.88e-12 *       0.086 1.16e-11
## 3 grp3  time       2    28 490.  1.64e-22 *       0.531 4.92e-22
# Pairwise comparisons between time points at each group levels
# Paired t-test is used because we have repeated measures by time
pwc2 <- anxiety %>%
  group_by(group) %>%
  pairwise_t_test(
    score ~ time, paired = TRUE, 
    p.adjust.method = "bonferroni"
    ) %>%
  select(-df, -statistic, -p) # Remove details
pwc2
## # A tibble: 9 x 8
##   group .y.   group1 group2    n1    n2        p.adj p.adj.signif
## * <fct> <chr> <chr>  <chr>  <int> <int>        <dbl> <chr>       
## 1 grp1  score t1     t2        15    15 0.194        ns          
## 2 grp1  score t1     t3        15    15 0.002        **          
## 3 grp1  score t2     t3        15    15 0.006        **          
## 4 grp2  score t1     t2        15    15 0.268        ns          
## 5 grp2  score t1     t3        15    15 0.000000151  ****        
## 6 grp2  score t2     t3        15    15 0.0000000612 ****        
## # … with 3 more rows
```
…
## 1     3 male   low       5.63  5.47
## 2    18 male   moderate  5.57  5.78
## 3    25 male   high      5.48  5.74
## 4    39 female low       5.50  5.66
## 5    50 female moderate  5.96  5.32
## 6    51 female high      5.59  5.06
# Gather the columns t1, t2 and t3 into long format.
# Convert id and time into factor variables
performance <- performance %>%
  gather(key = "time", value = "score", t1, t2) %>%
  convert_as_factor(id, time)
# Inspect some random rows of the data by groups
set.seed(123)
performance %>% sample_n_by(gender, stress, time, size = 1)
## # A tibble: 12 x 5
##   id    gender stress   time  score
##   <fct> <fct>  <fct>    <fct> <dbl>
## 1 3     male   low      t1     5.63
## 2 8     male   low      t2     5.92
## 3 15    male   moderate t1     5.96
## 4 19    male   moderate t2     5.76
## 5 30    male   high     t1     5.38
## 6 21    male   high     t2     5.64
## # … with 6 more rows
```

### Summary statistics

Group the data by `gender`, `stress` and `time`, and then compute some summary statistics of the `score` variable: mean and sd (standard deviation)

```
performance %>%
  group_by(gender, stress, time ) %>%
  get_summary_stats(score, type = "mean_sd")
## # A tibble: 12 x 7
##   gender stress   time  variable     n  mean    sd
##   <fct>  <fct>    <fct> <chr>    <dbl> <dbl> <dbl>
## 1 male   low      t1    score       10  5.72 0.19 
## 2 male   low      t2    score       10  5.70 0.143
## 3 male   moderate t1    score       10  5.72 0.193
## 4 male   moderate t2    score       10  5.77 0.155
## 5 male   high     t1    score       10  5.48 0.121
## 6 male   high     t2    score       10  5.64 0.195
## # … with 6 more rows
```
…
There were no extreme outliers.

#### Normality assumption

Compute Shapiro-Wilk test for each combinations of factor levels:

```
performance %>%
  group_by(gender, stress, time ) %>%
  shapiro_test(score)
## # A tibble: 12 x 6
##   gender stress   time  variable statistic      p
##   <fct>  <fct>    <fct> <chr>        <dbl>  <dbl>
## 1 male   low      t1    score        0.942 0.574 
## 2 male   low      t2    score        0.966 0.849 
## 3 male   moderate t1    score        0.848 0.0547
## 4 male   moderate t2    score        0.958 0.761 
## 5 male   high     t1    score        0.915 0.319 
## 6 male   high     t2    score        0.925 0.403 
## # … with 6 more rows
```
…
##      id diet  exercises    t1    t2    t3
##   <int> <fct> <fct>     <dbl> <dbl> <dbl>
## 1     4 no    no         11.1   9.5  11.1
## 2    22 no    yes        10.2  11.8  17.4
## 3     5 yes   no         11.6  13.4  13.9
## 4    23 yes   yes        12.7  12.7  15.1
# Gather the columns t1, t2 and t3 into long format.
# Convert id and time into factor variables
weightloss <- weightloss %>%
  gather(key = "time", value = "score", t1, t2, t3) %>%
  convert_as_factor(id, time)
# Inspect some random rows of the data by groups
set.seed(123)
weightloss %>% sample_n_by(diet, exercises, time, size = 1)
## # A tibble: 12 x 5
##   id    diet  exercises time  score
##   <fct> <fct> <fct>     <fct> <dbl>
## 1 4     no    no        t1     11.1
## 2 10    no    no        t2     10.7
## 3 5     no    no        t3     12.3
## 4 23    no    yes       t1     10.2
## 5 24    no    yes       t2     13.2
## 6 13    no    yes       t3     15.8
## # … with 6 more rows
```

### Summary statistics

Group the data by `exercises`, `diet` and `time`, and then compute some summary statistics of the `score` variable: mean and sd (standard deviation)

```
weightloss %>%
  group_by(exercises, diet, time) %>%
  get_summary_stats(score, type = "mean_sd")
## # A tibble: 12 x 7
##   diet  exercises time  variable     n  mean    sd
##   <fct> <fct>     <fct> <chr>    <dbl> <dbl> <dbl>
## 1 no    no        t1    score       12  10.9 0.868
## 2 no    no        t2    score       12  11.6 1.30 
## 3 no    no        t3    score       12  11.4 0.935
## 4 yes   no        t1    score       12  11.7 0.938
## 5 yes   no        t2    score       12  12.4 1.42 
## 6 yes   no        t3    score       12  13.8 1.43 
## # … with 6 more rows
```
…
There were no extreme outliers.

#### Normality assumption

Compute Shapiro-Wilk test for each combinations of factor levels:

```
weightloss %>%
  group_by(diet, exercises, time) %>%
  shapiro_test(score)
## # A tibble: 12 x 6
##   diet  exercises time  variable statistic     p
##   <fct> <fct>     <fct> <chr>        <dbl> <dbl>
## 1 no    no        t1    score        0.917 0.264
## 2 no    no        t2    score        0.957 0.743
## 3 no    no        t3    score        0.965 0.851
## 4 no    yes       t1    score        0.922 0.306
## 5 no    yes       t2    score        0.912 0.229
## 6 no    yes       t3    score        0.953 0.674
## # … with 6 more rows
```
…
